# Blender MTL File: 'Fender-Precision.blend'
# Material Count: 13

newmtl Brass
Ns 96.078431
Ka 1.000000 1.000000 1.000000
Kd 0.800000 0.580392 0.000000
Ks 0.500000 0.500000 0.500000
Ke 0.000000 0.000000 0.000000
Ni 1.000000
d 1.000000
illum 2

newmtl Crystal
Ns 96.078431
Ka 1.000000 1.000000 1.000000
Kd 0.621176 0.602353 0.533333
Ks 0.500000 0.500000 0.500000
Ke 0.000000 0.000000 0.000000
Ni 1.000000
d 1.000000
illum 2

newmtl Metallic
Ns 96.078431
Ka 1.000000 1.000000 1.000000
Kd 0.072157 0.069020 0.069020
Ks 0.500000 0.500000 0.500000
Ke 0.000000 0.000000 0.000000
Ni 1.000000
d 1.000000
illum 2

newmtl Metallic.001
Ns 96.078431
Ka 1.000000 1.000000 1.000000
Kd 1 1 1
Ks 0.500000 0.500000 0.500000
Ke 0.000000 0.000000 0.000000
Ni 1.000000
d 1.000000
illum 2

newmtl Shiny_Metal
Ns 96.078431
Ka 1.000000 1.000000 1.000000
Kd 0.800000 0.800000 0.800000
Ks 0.500000 0.500000 0.500000
Ke 0.000000 0.000000 0.000000
Ni 1.000000
d 1.000000
illum 2

newmtl Shiny_Metal.001
Ns 96.078431
Ka 1.000000 1.000000 1.000000
Kd 0.188235 0.188235 0.188235
Ks 0.500000 0.500000 0.500000
Ke 0.000000 0.000000 0.000000
Ni 1.000000
d 1.000000
illum 2

newmtl Shiny_Metal_.000
Ns 96.078431
Ka 1.000000 1.000000 1.000000
Kd 0.800000 0.800000 0.800000
Ks 0.500000 0.500000 0.500000
Ke 0.000000 0.000000 0.000000
Ni 1.000000
d 1.000000
illum 2

newmtl White
Ns 96.078431
Ka 1.000000 1.000000 1.000000
Kd 0.800000 0.800000 0.800000
Ks 0.500000 0.500000 0.500000
Ke 0.000000 0.000000 0.000000
Ni 1.000000
d 1.000000
illum 2

newmtl body-color
Ns 96.078431
Ka 1.000000 1.000000 1.000000
Kd .98 1 .67
Ks 0.081318 0.034063 0.000000
Ke 0.000000 0.000000 0.000000
Ni 1.000000
d 1.000000
illum 2

newmtl klavierlack
Ns 96.078431
Ka 1.000000 1.000000 1.000000
Kd 0.000000 0.000000 0.000000
Ks 0.500000 0.500000 0.500000
Ke 0.000000 0.000000 0.000000
Ni 1.000000
d 1.000000
illum 2

newmtl rubber_red
Ns 96.078431
Ka 1.000000 1.000000 1.000000
Kd 0.219608 0.084706 0.084706
Ks 0.500000 0.421569 0.421569
Ke 0.000000 0.000000 0.000000
Ni 1.000000
d 1.000000
illum 2

newmtl wood
Ns 96.078431
Ka 1.000000 1.000000 1.000000
Kd 0.422167 0.296924 0.088919
Ks 0.064117 0.032951 0.007532
Ke 0.000000 0.000000 0.000000
Ni 1.000000
d 1.000000
illum 2

newmtl wood.noodle
Ns 96.078431
Ka 1.000000 1.000000 1.000000
Kd 0.033620 0.023646 0.007081
Ks 0.500000 0.256955 0.058739
Ke 0.000000 0.000000 0.000000
Ni 1.000000
d 1.000000
illum 2
