# 3ds Max Wavefront OBJ Exporter v0.94b - (c)2007 guruware
# File Created: 01.12.2009 11:28:05

#shell
newmtl wire_154185229
	Ns 0
	d 1
	Tr 1
	Tf 1 1 1
	illum 2
	Ka 0.0000 0.0000 0.0000
	Kd 0.98 0.64 0.24
	Ks 0.3500 0.3500 0.3500

newmtl 10___Default
	Ns 100.0000
	Ni 1.5000
	d 1.0000
	Tr 1.0000
	Tf 1.0000 1.0000 1.0000 
	illum 2
	Ka 0.0000 0.0000 0.0000
	Kd 0.5882 0.5882 0.5882
	Ks 0.0000 0.0000 0.0000
	Ke 0.0000 0.0000 0.0000

newmtl wire_154154229
	Ns 32
	d 1
	Tr 1
	Tf 1 1 1
	illum 2
	Ka 0.0000 0.0000 0.0000
	Kd 0.1 0.1 0.1
	Ks 0.3500 0.3500 0.3500

newmtl 04___Default
	Ns 100.0000
	Ni 1.5000
	d 1.0000
	Tr 1.0000
	Tf 1.0000 1.0000 1.0000 
	illum 2
	Ka 0.0000 0.0000 0.0000
	Kd 0.5882 0.5882 0.5882
	Ks 0.0000 0.0000 0.0000
	Ke 0.0000 0.0000 0.0000

newmtl wire_184155229
	Ns 32
	d 1
	Tr 1
	Tf 1 1 1
	illum 2
	Ka 0.0000 0.0000 0.0000
	Kd 0.1 0.1 0.1
	Ks 0.3500 0.3500 0.3500

newmtl 05___Default
	Ns 100.0000
	Ni 1.5000
	d 1.0000
	Tr 1.0000
	Tf 1.0000 1.0000 1.0000 
	illum 2
	Ka 0.0000 0.0000 0.0000
	Kd 0.6706 0.5608 0.3686
	Ks 0.0000 0.0000 0.0000
	Ke 0.0000 0.0000 0.0000

newmtl wire_006134113
	Ns 32
	d 1
	Tr 1
	Tf 1 1 1
	illum 2
	Ka 0.0000 0.0000 0.0000
	Kd 0.1 0.1 0.1
	Ks 0.3500 0.3500 0.3500

newmtl wire_115115115
	Ns 32
	d 1
	Tr 1
	Tf 1 1 1
	illum 2
	Ka 0.0000 0.0000 0.0000
	Kd 0.4510 0.4510 0.4510
	Ks 0.3500 0.3500 0.3500

newmtl 11___Default
	Ns 10.0000
	Ni 1.5000
	d 1.0000
	Tr 1.0000
	Tf 1.0000 1.0000 1.0000 
	illum 2
	Ka 0.0000 0.0000 0.0000
	Kd 0.1 0.1 0.1
	Ks 0.0000 0.0000 0.0000
	Ke 0.0000 0.0000 0.0000

newmtl wire_227152152
	Ns 32
	d 1
	Tr 1
	Tf 1 1 1
	illum 2
	Ka 0.0000 0.0000 0.0000
	Kd 0.1 0.1 0.1
	Ks 0.3500 0.3500 0.3500
