# 3ds Max Wavefront OBJ Exporter v0.97b - (c)2007 guruware
# File Created: 05.08.2014 04:25:26

#neck headstock
newmtl wire_008008136
	Ns 32
	d 1
	Tr 0
	Tf 1 1 1
	illum 2
	Ka 0.0314 0.0314 0.5333
	Kd 0.97 1 .47
	Ks 0.3500 0.3500 0.3500

#body
newmtl wire_088088225
	Ns 32
	d 1
	Tr 0
	Tf 1 1 1
	illum 2
	Ka 0.3451 0.3451 0.8824
	Kd .1 .1 .1
	Ks 0.3500 0.3500 0.3500

#tuning key string pegs
newmtl wire_027177027
	Ns 32
	d 1
	Tr 0
	Tf 1 1 1
	illum 2
	Ka 0.1059 0.6941 0.1059
	Kd 0.62 .62 .62
	Ks 0.3500 0.3500 0.3500

#back of tuning pegs
newmtl wire_006135058
	Ns 32
	d 1
	Tr 0
	Tf 1 1 1
	illum 2
	Ka 0.0235 0.5294 0.2275
	Kd 0.0235 0.5294 0.2275
	Ks 0.3500 0.3500 0.3500

#straplock
newmtl wire_115115115
	Ns 32
	d 1
	Tr 0
	Tf 1 1 1
	illum 2
	Ka 0.4510 0.4510 0.4510
	Kd 0.62 .62 .62
	Ks 0.3500 0.3500 0.3500

#pickguard
newmtl wire_229166215
	Ns 32
	d 1
	Tr 0
	Tf 1 1 1
	illum 2
	Ka 0.8980 0.6510 0.8431
	Kd 1 1 1
	Ks 0.3500 0.3500 0.3500

#bridge
newmtl wire_143225087
	Ns 32
	d 1
	Tr 0
	Tf 1 1 1
	illum 2
	Ka 0.5608 0.8824 0.3412
	Kd 0.62 .62 .62
	Ks 0.3500 0.3500 0.3500

#bridge
newmtl wire_184155229
	Ns 32
	d 1
	Tr 0
	Tf 1 1 1
	illum 2
	Ka 0.7216 0.6078 0.8980
	Kd 0.62 .62 .62
	Ks 0.3500 0.3500 0.3500

#bridge
newmtl wire_085028177
	Ns 32
	d 1
	Tr 0
	Tf 1 1 1
	illum 2
	Ka 0.3333 0.1098 0.6941
	Kd 0.62 .62 .62
	Ks 0.3500 0.3500 0.3500

#bridge
newmtl wire_225087143
	Ns 32
	d 1
	Tr 0
	Tf 1 1 1
	illum 2
	Ka 0.8824 0.3412 0.5608
	Kd 0.62 .62 .62
	Ks 0.3500 0.3500 0.3500

#Knobs
newmtl wire_145028177
	Ns 32
	d 1
	Tr 0
	Tf 1 1 1
	illum 2
	Ka 0.5686 0.1098 0.6941
	Kd 1 1 1
	Ks 0.3500 0.3500 0.3500

#Audio jack cutout plate
newmtl wire_224086086
	Ns 32
	d 1
	Tr 0
	Tf 1 1 1
	illum 2
	Ka 0.8784 0.3373 0.3373
	Kd 0.62 .62 .62
	Ks 0.3500 0.3500 0.3500

#silver
newmtl wire_153228214
	Ns 32
	d 1
	Tr 0
	Tf 1 1 1
	illum 2
	Ka 0.6000 0.8941 0.8392
	Kd 0.62 .62 .62
	Ks 0.3500 0.3500 0.3500

#fretdots
newmtl wire_214229166
	Ns 32
	d 1
	Tr 0
	Tf 1 1 1
	illum 2
	Ka 0.8392 0.8980 0.6510
	Kd 0.1 .1 .1
	Ks 0.3500 0.3500 0.3500

#tuning keys
newmtl wire_087225198
	Ns 32
	d 1
	Tr 0
	Tf 1 1 1
	illum 2
	Ka 0.3412 0.8824 0.7765
	Kd 0.62 .62 .62
	Ks 0.3500 0.3500 0.3500

#fender logo
newmtl wire_000000000
	Ns 32
	d 1
	Tr 0
	Tf 1 1 1
	illum 2
	Ka 0.0000 0.0000 0.0000
	Kd 0.97 1 .47
	Ks 0.3500 0.3500 0.3500

#whammy bar tip
newmtl wire_086086086
	Ns 32
	d 1
	Tr 0
	Tf 1 1 1
	illum 2
	Ka 0.3373 0.3373 0.3373
	Kd 1 1 1
	Ks 0.3500 0.3500 0.3500

#backplate
newmtl wire_214228153
	Ns 32
	d 1
	Tr 0
	Tf 1 1 1
	illum 2
	Ka 0.8392 0.8941 0.6000
	Kd 1 1 1
	Ks 0.3500 0.3500 0.3500

#strings
newmtl wire_177088027
	Ns 32
	d 1
	Tr 0
	Tf 1 1 1
	illum 2
	Ka 0.6941 0.3451 0.1059
	Kd 0.62 .62 .62
	Ks 0.3500 0.3500 0.3500

#screws
newmtl wire_006135113
	Ns 32
	d 1
	Tr 0
	Tf 1 1 1
	illum 2
	Ka 0.0235 0.5294 0.4431
	Kd 0.62 .62 .62
	Ks 0.3500 0.3500 0.3500

#pickups
newmtl wire_057008136
	Ns 32
	d 1
	Tr 0
	Tf 1 1 1
	illum 2
	Ka 0.2235 0.0314 0.5333
	Kd 1 1 1
	Ks 0.3500 0.3500 0.3500

#pup magnets
newmtl wire_184228153
	Ns 32
	d 1
	Tr 0
	Tf 1 1 1
	illum 2
	Ka 0.7216 0.8941 0.6000
	Kd 0.62 .62 .62
	Ks 0.3500 0.3500 0.3500
