# 3ds Max Wavefront OBJ Exporter v0.97b - (c)2007 guruware
# File Created: 12.07.2011 15:54:03

newmtl PersianCarpet
	Ns 10.0000
	Ni 1.5000
	d 1.0000
	Tr 0.0000
	Tf 1.0000 1.0000 1.0000 
	illum 2
	Ka 0.5880 0.5880 0.5880
	Kd 0.5880 0.5880 0.5880
	Ks 0.0000 0.0000 0.0000
	Ke 0.0000 0.0000 0.0000
	map_Ka engine/models/obj-mtl/props/textures/PersianCarpet_Diffuce2.jpg
	map_Kd engine/models/obj-mtl/props/textures/PersianCarpet_Diffuce2.jpg