# MTL written from D:\job\models\07_Well\well.obj
newmtl metal
Kd 0.8 0.8 0.8
Ns 256
d 1
illum 2
Ka 0 0 0
Ks 0.04 0.04 0.04
map_Kd engine/models/obj-mtl/props/textures/metal.jpg
newmtl roof
Kd 0.8 0.8 0.8
Ns 256
d 1
illum 2
Ka 0 0 0
Ks 0.04 0.04 0.04
map_Kd engine/models/obj-mtl/props/textures/roof.jpg
newmtl well
Kd 0.8 0.8 0.8
Ns 256
d 1
illum 2
Ka 0 0 0
Ks 0.2 0.2 0.2
map_Kd engine/models/obj-mtl/props/textures/brick.jpg
newmtl wire
Kd 0.8 0.8 0.8
Ns 256
d 1
illum 2
Ka 0 0 0
Ks 0.2 0.2 0.2
map_Kd engine/models/obj-mtl/props/textures/fabric.jpg
newmtl wood
Kd 0.8 0.8 0.8
Ns 256
d 1
illum 2
Ka 0 0 0
Ks 0.04 0.04 0.04
map_Kd engine/models/obj-mtl/props/textures/wood.jpg