# Blender MTL File: 'None'
# Material Count: 9

newmtl Eye_brown
Ns 500.000000
Ka 1.000000 1.000000 1.000000
Kd 0.640000 0.640000 0.640000
Ks 0.500000 0.500000 0.500000
Ke 0.000000 0.000000 0.000000
Ni -1.000000
d 1.000000
illum 2
map_Kd engine/models/obj-mtl/characters/textures/brown_eye.jpg

newmtl Shoes05
Ns 398.039216
Ka 1.000000 1.000000 1.000000
Kd 0.640000 0.640000 0.640000
Ks 0.025500 0.023550 0.023550
Ke 0.000000 0.000000 0.000000
Ni -1.000000
d 1.000000
illum 2
map_Kd engine/models/obj-mtl/characters/textures/shoes05_diffuse.jpg

newmtl eyebrow008
Ns 249.019608
Ka 1.000000 1.000000 1.000000
Kd 0.640000 0.640000 0.640000
Ks 0.000000 0.000000 0.000000
Ke 0.000000 0.000000 0.000000
Ni -1.000000
d 1.000000
illum 2
map_Kd engine/models/obj-mtl/characters/textures/eyebrow008.png

newmtl junglebookhairMaterial
Ns 500.000000
Ka 1.000000 1.000000 1.000000
Kd 0.640000 0.640000 0.640000
Ks 0.000000 0.000000 0.000000
Ke 0.000000 0.000000 0.000000
Ni -1.000000
d 1.000000
illum 2
map_Kd engine/models/obj-mtl/characters/textures/Hairblackseamless2png.png

newmtl male_casualsuit06
Ns 96.078431
Ka 1.000000 1.000000 1.000000
Kd 0.640000 0.640000 0.640000
Ks 0.013750 0.013750 0.013750
Ke 0.000000 0.000000 0.000000
Ni -1.000000
d 1.000000
illum 2
map_Kd engine/models/obj-mtl/characters/textures/male_casualsuit06_diffuse.jpg

newmtl materialMaterial
Ns 0.000000
Ka 1.000000 1.000000 1.000000
Kd 0.640000 0.640000 0.640000
Ks 0.000100 0.000100 0.000100
Ke 0.000000 0.000000 0.000000
Ni -1.000000
d 1.000000
illum 2
map_Kd engine/models/obj-mtl/characters/textures/Moustache_black_diff.png

newmtl old_caucasian_male_detailed
Ns 249.019608
Ka 1.000000 1.000000 1.000000
Kd 0.640000 0.640000 0.640000
Ks 0.013750 0.013750 0.013750
Ke 0.000000 0.000000 0.000000
Ni -1.000000
d 1.000000
illum 2
map_Kd engine/models/obj-mtl/characters/textures/young_lightskinned_male_diffuse2.jpg

newmtl teethMaterial
Ns 398.039216
Ka 1.000000 1.000000 1.000000
Kd 0.640000 0.640000 0.640000
Ks 0.427450 0.427450 0.427450
Ke 0.000000 0.000000 0.000000
Ni -1.000000
d 1.000000
illum 2
map_Kd engine/models/obj-mtl/characters/textures/teeth.jpg

newmtl tongue01Material
Ns 96.078431
Ka 1.000000 1.000000 1.000000
Kd 0.640000 0.640000 0.640000
Ks 0.015700 0.015700 0.015700
Ke 0.000000 0.000000 0.000000
Ni -1.000000
d 1.000000
illum 2
map_Kd engine/models/obj-mtl/characters/textures/tongue01_diffuse.jpg
